^C:\USERS\PCHAR\DOCUMENTS\VISUAL STUDIO 2015\PROJECTS\STRUCTURE DE DONNEES\GUICHETPROJET2017-07-31\GUICHETPROJET2017-07-31\GUICHET.CPP
C:\USERS\PCHAR\DOCUMENTS\VISUAL STUDIO 2015\PROJECTS\STRUCTURE DE DONNEES\GUICHETPROJET2017-07-31\GUICHETPROJET2017-07-31\X64\DEBUG\VC141.PDB
C:\USERS\PCHAR\DOCUMENTS\VISUAL STUDIO 2015\PROJECTS\STRUCTURE DE DONNEES\GUICHETPROJET2017-07-31\GUICHETPROJET2017-07-31\X64\DEBUG\VC141.IDB
C:\USERS\PCHAR\DOCUMENTS\VISUAL STUDIO 2015\PROJECTS\STRUCTURE DE DONNEES\GUICHETPROJET2017-07-31\GUICHETPROJET2017-07-31\X64\DEBUG\GUICHET.OBJ
