^C:\USERS\PCHAR\DOCUMENTS\VISUAL STUDIO 2015\PROJECTS\STRUCTURE DE DONNEES\GUICHETPROJET2017-07-31\GUICHETPROJET2017-07-31\X64\DEBUG\GUICHET.OBJ
C:\USERS\PCHAR\DOCUMENTS\VISUAL STUDIO 2015\PROJECTS\STRUCTURE DE DONNEES\GUICHETPROJET2017-07-31\X64\DEBUG\GUICHETPROJET2017-07-31.ILK
C:\USERS\PCHAR\DOCUMENTS\VISUAL STUDIO 2015\PROJECTS\STRUCTURE DE DONNEES\GUICHETPROJET2017-07-31\X64\DEBUG\GUICHETPROJET2017-07-31.EXE
C:\USERS\PCHAR\DOCUMENTS\VISUAL STUDIO 2015\PROJECTS\STRUCTURE DE DONNEES\GUICHETPROJET2017-07-31\X64\DEBUG\GUICHETPROJET2017-07-31.PDB
